%YAML 1.1
%TAG !u! tag:unity3d.com,2011:
--- !u!114 &1
MonoBehaviour:
  m_ObjectHideFlags: 52
  m_CorrespondingSourceObject: {fileID: 0}
  m_PrefabInstance: {fileID: 0}
  m_PrefabAsset: {fileID: 0}
  m_GameObject: {fileID: 0}
  m_Enabled: 1
  m_EditorHideFlags: 0
  m_Script: {fileID: 12392, guid: 0000000000000000e000000000000000, type: 0}
  m_Name: Default Brush
  m_EditorClassIdentifier: 
  m_Cells:
  - m_Tile: {fileID: 11400000, guid: 60cea7288f8697043b16e2ff5c734d3d, type: 2}
    m_Matrix:
      e00: 1
      e01: 0
      e02: 0
      e03: 0
      e10: 0
      e11: 1
      e12: 0
      e13: 0
      e20: 0
      e21: 0
      e22: 1
      e23: 0
      e30: 0
      e31: 0
      e32: 0
      e33: 1
    m_Color: {r: 1, g: 1, b: 1, a: 1}
  m_Size: {x: 1, y: 1, z: 1}
  m_Pivot: {x: 0, y: 0, z: 0}
