%YAML 1.1
%TAG !u! tag:unity3d.com,2011:
--- !u!1 &4930842012047257390
GameObject:
  m_ObjectHideFlags: 0
  m_CorrespondingSourceObject: {fileID: 0}
  m_PrefabInstance: {fileID: 0}
  m_PrefabAsset: {fileID: 0}
  serializedVersion: 6
  m_Component:
  - component: {fileID: 360090835478679977}
  - component: {fileID: 6135785410982521479}
  m_Layer: 31
  m_Name: 'Grass '
  m_TagString: Untagged
  m_Icon: {fileID: 0}
  m_NavMeshLayer: 0
  m_StaticEditorFlags: 0
  m_IsActive: 1
--- !u!4 &360090835478679977
Transform:
  m_ObjectHideFlags: 0
  m_CorrespondingSourceObject: {fileID: 0}
  m_PrefabInstance: {fileID: 0}
  m_PrefabAsset: {fileID: 0}
  m_GameObject: {fileID: 4930842012047257390}
  m_LocalRotation: {x: 0, y: 0, z: 0, w: 1}
  m_LocalPosition: {x: 0, y: 0, z: 0}
  m_LocalScale: {x: 1, y: 1, z: 1}
  m_Children:
  - {fileID: 5386589109062008460}
  m_Father: {fileID: 0}
  m_RootOrder: 0
  m_LocalEulerAnglesHint: {x: 0, y: 0, z: 0}
--- !u!156049354 &6135785410982521479
Grid:
  m_ObjectHideFlags: 0
  m_CorrespondingSourceObject: {fileID: 0}
  m_PrefabInstance: {fileID: 0}
  m_PrefabAsset: {fileID: 0}
  m_GameObject: {fileID: 4930842012047257390}
  m_Enabled: 1
  m_CellSize: {x: 1, y: 1, z: 0}
  m_CellGap: {x: 0, y: 0, z: 0}
  m_CellLayout: 0
  m_CellSwizzle: 0
--- !u!1 &8198606494443602787
GameObject:
  m_ObjectHideFlags: 0
  m_CorrespondingSourceObject: {fileID: 0}
  m_PrefabInstance: {fileID: 0}
  m_PrefabAsset: {fileID: 0}
  serializedVersion: 6
  m_Component:
  - component: {fileID: 5386589109062008460}
  - component: {fileID: 1676832361680816438}
  - component: {fileID: 6038362032036856365}
  m_Layer: 31
  m_Name: Layer1
  m_TagString: Untagged
  m_Icon: {fileID: 0}
  m_NavMeshLayer: 0
  m_StaticEditorFlags: 0
  m_IsActive: 1
--- !u!4 &5386589109062008460
Transform:
  m_ObjectHideFlags: 0
  m_CorrespondingSourceObject: {fileID: 0}
  m_PrefabInstance: {fileID: 0}
  m_PrefabAsset: {fileID: 0}
  m_GameObject: {fileID: 8198606494443602787}
  m_LocalRotation: {x: -0, y: -0, z: -0, w: 1}
  m_LocalPosition: {x: 0, y: 0, z: 0}
  m_LocalScale: {x: 1, y: 1, z: 1}
  m_Children: []
  m_Father: {fileID: 360090835478679977}
  m_RootOrder: 0
  m_LocalEulerAnglesHint: {x: 0, y: 0, z: 0}
--- !u!1839735485 &1676832361680816438
Tilemap:
  m_ObjectHideFlags: 0
  m_CorrespondingSourceObject: {fileID: 0}
  m_PrefabInstance: {fileID: 0}
  m_PrefabAsset: {fileID: 0}
  m_GameObject: {fileID: 8198606494443602787}
  m_Enabled: 1
  m_Tiles:
  - first: {x: 1, y: -11, z: 0}
    second:
      m_TileIndex: 23
      m_TileSpriteIndex: 23
      m_TileMatrixIndex: 0
      m_TileColorIndex: 0
      m_ObjectToInstantiate: {fileID: 0}
      m_TileFlags: 1
      m_ColliderType: 1
  - first: {x: 0, y: -5, z: 0}
    second:
      m_TileIndex: 20
      m_TileSpriteIndex: 20
      m_TileMatrixIndex: 0
      m_TileColorIndex: 0
      m_ObjectToInstantiate: {fileID: 0}
      m_TileFlags: 1
      m_ColliderType: 1
  - first: {x: 1, y: -5, z: 0}
    second:
      m_TileIndex: 21
      m_TileSpriteIndex: 21
      m_TileMatrixIndex: 0
      m_TileColorIndex: 0
      m_ObjectToInstantiate: {fileID: 0}
      m_TileFlags: 1
      m_ColliderType: 1
  - first: {x: 2, y: -5, z: 0}
    second:
      m_TileIndex: 22
      m_TileSpriteIndex: 22
      m_TileMatrixIndex: 0
      m_TileColorIndex: 0
      m_ObjectToInstantiate: {fileID: 0}
      m_TileFlags: 1
      m_ColliderType: 1
  - first: {x: 0, y: -4, z: 0}
    second:
      m_TileIndex: 15
      m_TileSpriteIndex: 15
      m_TileMatrixIndex: 0
      m_TileColorIndex: 0
      m_ObjectToInstantiate: {fileID: 0}
      m_TileFlags: 1
      m_ColliderType: 1
  - first: {x: 1, y: -4, z: 0}
    second:
      m_TileIndex: 16
      m_TileSpriteIndex: 16
      m_TileMatrixIndex: 0
      m_TileColorIndex: 0
      m_ObjectToInstantiate: {fileID: 0}
      m_TileFlags: 1
      m_ColliderType: 1
  - first: {x: 2, y: -4, z: 0}
    second:
      m_TileIndex: 17
      m_TileSpriteIndex: 17
      m_TileMatrixIndex: 0
      m_TileColorIndex: 0
      m_ObjectToInstantiate: {fileID: 0}
      m_TileFlags: 1
      m_ColliderType: 1
  - first: {x: 3, y: -4, z: 0}
    second:
      m_TileIndex: 18
      m_TileSpriteIndex: 18
      m_TileMatrixIndex: 0
      m_TileColorIndex: 0
      m_ObjectToInstantiate: {fileID: 0}
      m_TileFlags: 1
      m_ColliderType: 1
  - first: {x: 4, y: -4, z: 0}
    second:
      m_TileIndex: 19
      m_TileSpriteIndex: 19
      m_TileMatrixIndex: 0
      m_TileColorIndex: 0
      m_ObjectToInstantiate: {fileID: 0}
      m_TileFlags: 1
      m_ColliderType: 1
  - first: {x: 0, y: -3, z: 0}
    second:
      m_TileIndex: 10
      m_TileSpriteIndex: 10
      m_TileMatrixIndex: 0
      m_TileColorIndex: 0
      m_ObjectToInstantiate: {fileID: 0}
      m_TileFlags: 1
      m_ColliderType: 1
  - first: {x: 1, y: -3, z: 0}
    second:
      m_TileIndex: 11
      m_TileSpriteIndex: 11
      m_TileMatrixIndex: 0
      m_TileColorIndex: 0
      m_ObjectToInstantiate: {fileID: 0}
      m_TileFlags: 1
      m_ColliderType: 1
  - first: {x: 2, y: -3, z: 0}
    second:
      m_TileIndex: 12
      m_TileSpriteIndex: 12
      m_TileMatrixIndex: 0
      m_TileColorIndex: 0
      m_ObjectToInstantiate: {fileID: 0}
      m_TileFlags: 1
      m_ColliderType: 1
  - first: {x: 3, y: -3, z: 0}
    second:
      m_TileIndex: 13
      m_TileSpriteIndex: 13
      m_TileMatrixIndex: 0
      m_TileColorIndex: 0
      m_ObjectToInstantiate: {fileID: 0}
      m_TileFlags: 1
      m_ColliderType: 1
  - first: {x: 4, y: -3, z: 0}
    second:
      m_TileIndex: 14
      m_TileSpriteIndex: 14
      m_TileMatrixIndex: 0
      m_TileColorIndex: 0
      m_ObjectToInstantiate: {fileID: 0}
      m_TileFlags: 1
      m_ColliderType: 1
  - first: {x: 0, y: -2, z: 0}
    second:
      m_TileIndex: 5
      m_TileSpriteIndex: 5
      m_TileMatrixIndex: 0
      m_TileColorIndex: 0
      m_ObjectToInstantiate: {fileID: 0}
      m_TileFlags: 1
      m_ColliderType: 1
  - first: {x: 1, y: -2, z: 0}
    second:
      m_TileIndex: 6
      m_TileSpriteIndex: 6
      m_TileMatrixIndex: 0
      m_TileColorIndex: 0
      m_ObjectToInstantiate: {fileID: 0}
      m_TileFlags: 1
      m_ColliderType: 1
  - first: {x: 2, y: -2, z: 0}
    second:
      m_TileIndex: 7
      m_TileSpriteIndex: 7
      m_TileMatrixIndex: 0
      m_TileColorIndex: 0
      m_ObjectToInstantiate: {fileID: 0}
      m_TileFlags: 1
      m_ColliderType: 1
  - first: {x: 3, y: -2, z: 0}
    second:
      m_TileIndex: 8
      m_TileSpriteIndex: 8
      m_TileMatrixIndex: 0
      m_TileColorIndex: 0
      m_ObjectToInstantiate: {fileID: 0}
      m_TileFlags: 1
      m_ColliderType: 1
  - first: {x: 4, y: -2, z: 0}
    second:
      m_TileIndex: 9
      m_TileSpriteIndex: 9
      m_TileMatrixIndex: 0
      m_TileColorIndex: 0
      m_ObjectToInstantiate: {fileID: 0}
      m_TileFlags: 1
      m_ColliderType: 1
  - first: {x: 0, y: -1, z: 0}
    second:
      m_TileIndex: 0
      m_TileSpriteIndex: 0
      m_TileMatrixIndex: 0
      m_TileColorIndex: 0
      m_ObjectToInstantiate: {fileID: 0}
      m_TileFlags: 1
      m_ColliderType: 1
  - first: {x: 1, y: -1, z: 0}
    second:
      m_TileIndex: 1
      m_TileSpriteIndex: 1
      m_TileMatrixIndex: 0
      m_TileColorIndex: 0
      m_ObjectToInstantiate: {fileID: 0}
      m_TileFlags: 1
      m_ColliderType: 1
  - first: {x: 2, y: -1, z: 0}
    second:
      m_TileIndex: 2
      m_TileSpriteIndex: 2
      m_TileMatrixIndex: 0
      m_TileColorIndex: 0
      m_ObjectToInstantiate: {fileID: 0}
      m_TileFlags: 1
      m_ColliderType: 1
  - first: {x: 3, y: -1, z: 0}
    second:
      m_TileIndex: 3
      m_TileSpriteIndex: 3
      m_TileMatrixIndex: 0
      m_TileColorIndex: 0
      m_ObjectToInstantiate: {fileID: 0}
      m_TileFlags: 1
      m_ColliderType: 1
  - first: {x: 4, y: -1, z: 0}
    second:
      m_TileIndex: 4
      m_TileSpriteIndex: 4
      m_TileMatrixIndex: 0
      m_TileColorIndex: 0
      m_ObjectToInstantiate: {fileID: 0}
      m_TileFlags: 1
      m_ColliderType: 1
  m_AnimatedTiles: {}
  m_TileAssetArray:
  - m_RefCount: 1
    m_Data: {fileID: 11400000, guid: dee416d821296e54e804cafb876459ae, type: 2}
  - m_RefCount: 1
    m_Data: {fileID: 11400000, guid: e3161dc6e5e447e43be2093c53b2db7f, type: 2}
  - m_RefCount: 1
    m_Data: {fileID: 11400000, guid: b5ffa341fbb70734dad9f772cb1c13e4, type: 2}
  - m_RefCount: 1
    m_Data: {fileID: 11400000, guid: 64960da94e5f84f4183f209504411366, type: 2}
  - m_RefCount: 1
    m_Data: {fileID: 11400000, guid: 4f71910baf45e824b9a320ba9e731ae2, type: 2}
  - m_RefCount: 1
    m_Data: {fileID: 11400000, guid: 577eb8d25de38e840a780fedf03140eb, type: 2}
  - m_RefCount: 1
    m_Data: {fileID: 11400000, guid: 3c2d05e65f234ba448de7f384a7e6a31, type: 2}
  - m_RefCount: 1
    m_Data: {fileID: 11400000, guid: de5a4a1c8aa4eea4d894c27f7a60998f, type: 2}
  - m_RefCount: 1
    m_Data: {fileID: 11400000, guid: c9da17250ea392e428f762e3745a6bf8, type: 2}
  - m_RefCount: 1
    m_Data: {fileID: 11400000, guid: 87cb412c31855a4468bd492fd5000f94, type: 2}
  - m_RefCount: 1
    m_Data: {fileID: 11400000, guid: 27184ff14fbc46e42afce25572e351f4, type: 2}
  - m_RefCount: 1
    m_Data: {fileID: 11400000, guid: c59276c9a85c9d949aeb96348d75d535, type: 2}
  - m_RefCount: 1
    m_Data: {fileID: 11400000, guid: aded1c9fd044c8e4f963801fb91bd74e, type: 2}
  - m_RefCount: 1
    m_Data: {fileID: 11400000, guid: bb845d58b776a0b4ba3e3a47eacd1dcb, type: 2}
  - m_RefCount: 1
    m_Data: {fileID: 11400000, guid: 63704e5f07814884cb885528e7128852, type: 2}
  - m_RefCount: 1
    m_Data: {fileID: 11400000, guid: 97dc989eada3b5145ba8f2ad893e5755, type: 2}
  - m_RefCount: 1
    m_Data: {fileID: 11400000, guid: 7c006762e75f9434192a9b58521ddc66, type: 2}
  - m_RefCount: 1
    m_Data: {fileID: 11400000, guid: 840763c673214c443a3fc29840664c88, type: 2}
  - m_RefCount: 1
    m_Data: {fileID: 11400000, guid: 5214b33c2bcc04f44acca666734c2b18, type: 2}
  - m_RefCount: 1
    m_Data: {fileID: 11400000, guid: a07d75677e389c7439ca8bb19ded0918, type: 2}
  - m_RefCount: 1
    m_Data: {fileID: 11400000, guid: 681b6c00b1989d545a9ad2c3e4825f93, type: 2}
  - m_RefCount: 1
    m_Data: {fileID: 11400000, guid: a04fa9248b9f2ed4182a36c369999257, type: 2}
  - m_RefCount: 1
    m_Data: {fileID: 11400000, guid: 2f0693eaf4ce41f45acc24641ecaf867, type: 2}
  - m_RefCount: 1
    m_Data: {fileID: 11400000, guid: abd2425a261f3f845863d42ce23ded65, type: 2}
  m_TileSpriteArray:
  - m_RefCount: 1
    m_Data: {fileID: 21300000, guid: 0d2105f2f5285c04b885124cb4a0f8fa, type: 3}
  - m_RefCount: 1
    m_Data: {fileID: 21300000, guid: 26da5d73d53ccd644b77d93fd0681810, type: 3}
  - m_RefCount: 1
    m_Data: {fileID: 21300000, guid: 2c7014443e97a954eaf177ca46746c46, type: 3}
  - m_RefCount: 1
    m_Data: {fileID: 21300000, guid: 5264cb4aa33bede4ab91ee33bbf33e31, type: 3}
  - m_RefCount: 1
    m_Data: {fileID: 21300000, guid: 606b3b9c0285e0e4f8a517ac9b0d5099, type: 3}
  - m_RefCount: 1
    m_Data: {fileID: 21300000, guid: 11ecfc3db9296b44c9811fc5657ed4b7, type: 3}
  - m_RefCount: 1
    m_Data: {fileID: 21300000, guid: 80f71ba242e23634ca995d2051cbed2d, type: 3}
  - m_RefCount: 1
    m_Data: {fileID: 21300000, guid: 9a13d38469028e041b62c697d3013c43, type: 3}
  - m_RefCount: 1
    m_Data: {fileID: 21300000, guid: af18fcd4f92ad3b4cbc9aa30a2ad20ef, type: 3}
  - m_RefCount: 1
    m_Data: {fileID: 21300000, guid: 817ca0f5328a79145b074301bd0a3699, type: 3}
  - m_RefCount: 1
    m_Data: {fileID: 21300000, guid: 7bb93af5468a1944db056a9b960b1c2b, type: 3}
  - m_RefCount: 1
    m_Data: {fileID: 21300000, guid: 87010566091b425429b5b184b55f3c35, type: 3}
  - m_RefCount: 1
    m_Data: {fileID: 21300000, guid: 9a1dbd66572d13f43911ffa278d5a4c9, type: 3}
  - m_RefCount: 1
    m_Data: {fileID: 21300000, guid: a329b95ad6e0890409a41061acac105a, type: 3}
  - m_RefCount: 1
    m_Data: {fileID: 21300000, guid: acb8685bdcd014d4191c6f027598e71c, type: 3}
  - m_RefCount: 1
    m_Data: {fileID: 21300000, guid: c041a330e8a751742840149d39bc0372, type: 3}
  - m_RefCount: 1
    m_Data: {fileID: 21300000, guid: e15fa195476af414ba25c5106629f6e9, type: 3}
  - m_RefCount: 1
    m_Data: {fileID: 21300000, guid: da4dd058e55b3db419089e862f504de5, type: 3}
  - m_RefCount: 1
    m_Data: {fileID: 21300000, guid: c74558e871feb4d4fa0bd1b57d5eac5a, type: 3}
  - m_RefCount: 1
    m_Data: {fileID: 21300000, guid: f507ebe811e2fcd4ebaa13156a850a34, type: 3}
  - m_RefCount: 1
    m_Data: {fileID: 21300000, guid: e890680b33b91ca4eb3af7d2722b9ff7, type: 3}
  - m_RefCount: 1
    m_Data: {fileID: 21300000, guid: fe84cf7dee62fe14e9ce1f08a0cc3f0d, type: 3}
  - m_RefCount: 1
    m_Data: {fileID: 21300000, guid: c1f252aee26b55f43ab59d04e8ca5687, type: 3}
  - m_RefCount: 1
    m_Data: {fileID: 21300000, guid: fa9008ba27d044823835d85918621932, type: 3}
  m_TileMatrixArray:
  - m_RefCount: 24
    m_Data:
      e00: 1
      e01: 0
      e02: 0
      e03: 0
      e10: 0
      e11: 1
      e12: 0
      e13: 0
      e20: 0
      e21: 0
      e22: 1
      e23: 0
      e30: 0
      e31: 0
      e32: 0
      e33: 1
  m_TileColorArray:
  - m_RefCount: 24
    m_Data: {r: 1, g: 1, b: 1, a: 1}
  m_AnimationFrameRate: 1
  m_Color: {r: 1, g: 1, b: 1, a: 1}
  m_Origin: {x: 0, y: -11, z: 0}
  m_Size: {x: 5, y: 11, z: 1}
  m_TileAnchor: {x: 0.5, y: 0.5, z: 0}
  m_TileOrientation: 0
  m_TileOrientationMatrix:
    e00: 1
    e01: 0
    e02: 0
    e03: 0
    e10: 0
    e11: 1
    e12: 0
    e13: 0
    e20: 0
    e21: 0
    e22: 1
    e23: 0
    e30: 0
    e31: 0
    e32: 0
    e33: 1
--- !u!483693784 &6038362032036856365
TilemapRenderer:
  m_ObjectHideFlags: 0
  m_CorrespondingSourceObject: {fileID: 0}
  m_PrefabInstance: {fileID: 0}
  m_PrefabAsset: {fileID: 0}
  m_GameObject: {fileID: 8198606494443602787}
  m_Enabled: 0
  m_CastShadows: 0
  m_ReceiveShadows: 0
  m_DynamicOccludee: 0
  m_MotionVectors: 1
  m_LightProbeUsage: 0
  m_ReflectionProbeUsage: 0
  m_RenderingLayerMask: 1
  m_RendererPriority: 0
  m_Materials:
  - {fileID: 10754, guid: 0000000000000000f000000000000000, type: 0}
  m_StaticBatchInfo:
    firstSubMesh: 0
    subMeshCount: 0
  m_StaticBatchRoot: {fileID: 0}
  m_ProbeAnchor: {fileID: 0}
  m_LightProbeVolumeOverride: {fileID: 0}
  m_ScaleInLightmap: 1
  m_PreserveUVs: 0
  m_IgnoreNormalsForChartDetection: 0
  m_ImportantGI: 0
  m_StitchLightmapSeams: 0
  m_SelectedEditorRenderState: 0
  m_MinimumChartSize: 4
  m_AutoUVMaxDistance: 0.5
  m_AutoUVMaxAngle: 89
  m_LightmapParameters: {fileID: 0}
  m_SortingLayerID: 0
  m_SortingLayer: 0
  m_SortingOrder: 0
  m_ChunkSize: {x: 32, y: 32, z: 32}
  m_ChunkCullingBounds: {x: 0, y: 0, z: 0}
  m_MaxChunkCount: 16
  m_MaxFrameAge: 16
  m_SortOrder: 0
  m_Mode: 0
  m_DetectChunkCullingBounds: 0
  m_MaskInteraction: 0
--- !u!114 &114974298817154640
MonoBehaviour:
  m_ObjectHideFlags: 0
  m_CorrespondingSourceObject: {fileID: 0}
  m_PrefabInstance: {fileID: 0}
  m_PrefabAsset: {fileID: 0}
  m_GameObject: {fileID: 0}
  m_Enabled: 1
  m_EditorHideFlags: 0
  m_Script: {fileID: 12395, guid: 0000000000000000e000000000000000, type: 0}
  m_Name: Palette Settings
  m_EditorClassIdentifier: 
  cellSizing: 0
